{
  "meta": {
    "version": "2.7.12",
    "build": 1580070867
  },
  "pods": {
    "9804": {
      "id": 9804,
      "name": "guru_sports_data_league_season",
      "label": "Guru Sports Data League Season",
      "description": "",
      "type": "pod",
      "storage": "table",
      "object": "",
      "alias": "",
      "fields": {
        "league_id": {
          "id": 9810,
          "name": "league_id",
          "label": "League ID",
          "description": "",
          "help": "",
          "class": "",
          "type": "number",
          "weight": 0,
          "pick_object": "",
          "pick_val": "",
          "sister_id": "",
          "_prlipro-post-options": {
            "send_auto_tweet": false,
            "requested_slug": "",
            "requested_twitter_message": "{%title%} {%url%} {%hash%}",
            "hide_twitter_button": 0,
            "hide_social_buttons": 0,
            "disable_replacements": 0
          },
          "required": "1",
          "unique": "0",
          "number_format_type": "number",
          "number_format": "i18n",
          "number_decimals": "0",
          "number_format_soft": "0",
          "number_step": "1",
          "number_min": "0",
          "number_max": "100",
          "number_max_length": "12",
          "pick_post_status": [
            "publish"
          ],
          "admin_only": "0",
          "restrict_role": "0",
          "restrict_capability": "0",
          "hidden": "0",
          "read_only": "0",
          "roles_allowed": [
            "administrator"
          ],
          "number_repeatable": "0",
          "number_placeholder": ""
        },
        "season_id": {
          "id": 9811,
          "name": "season_id",
          "label": "Season ID",
          "description": "",
          "help": "",
          "class": "",
          "type": "number",
          "weight": 1,
          "pick_object": "",
          "pick_val": "",
          "sister_id": "",
          "_prlipro-post-options": {
            "send_auto_tweet": false,
            "requested_slug": "",
            "requested_twitter_message": "{%title%} {%url%} {%hash%}",
            "hide_twitter_button": 0,
            "hide_social_buttons": 0,
            "disable_replacements": 0
          },
          "required": "1",
          "unique": "0",
          "number_format_type": "number",
          "number_format": "i18n",
          "number_decimals": "0",
          "number_format_soft": "0",
          "number_step": "1",
          "number_min": "0",
          "number_max": "100",
          "number_max_length": "12",
          "pick_post_status": [
            "publish"
          ],
          "admin_only": "0",
          "restrict_role": "0",
          "restrict_capability": "0",
          "hidden": "0",
          "read_only": "0",
          "roles_allowed": [
            "administrator"
          ],
          "number_repeatable": "0",
          "number_placeholder": ""
        },
        "season_title": {
          "id": 9812,
          "name": "season_title",
          "label": "Season Title",
          "description": "",
          "help": "",
          "class": "",
          "type": "text",
          "weight": 2,
          "pick_object": "",
          "pick_val": "",
          "sister_id": "",
          "_prlipro-post-options": {
            "send_auto_tweet": false,
            "requested_slug": "",
            "requested_twitter_message": "{%title%} {%url%} {%hash%}",
            "hide_twitter_button": 0,
            "hide_social_buttons": 0,
            "disable_replacements": 0
          },
          "required": "1",
          "unique": "0",
          "text_allow_shortcode": "0",
          "text_allow_html": "0",
          "text_allowed_html_tags": "strong em a ul ol li b i",
          "text_max_length": "255",
          "pick_post_status": [
            "publish"
          ],
          "admin_only": "0",
          "restrict_role": "0",
          "restrict_capability": "0",
          "hidden": "0",
          "read_only": "0",
          "roles_allowed": [
            "administrator"
          ],
          "text_repeatable": "0",
          "text_placeholder": ""
        },
        "league_title": {
          "id": 13565,
          "name": "league_title",
          "label": "League title",
          "description": "",
          "help": "",
          "class": "",
          "type": "text",
          "weight": 3,
          "pick_object": "",
          "pick_val": "",
          "sister_id": "",
          "_prlipro-post-options": {
            "send_auto_tweet": false,
            "requested_slug": "",
            "requested_twitter_message": "{%title%} {%url%} {%hash%}",
            "hide_twitter_button": 0,
            "hide_social_buttons": 0,
            "disable_replacements": 0
          },
          "required": "1",
          "unique": "0",
          "text_allow_shortcode": "0",
          "text_allow_html": "0",
          "text_allowed_html_tags": "strong em a ul ol li b i",
          "text_max_length": "255",
          "pick_post_status": [
            "publish"
          ],
          "admin_only": "0",
          "restrict_role": "0",
          "restrict_capability": "0",
          "hidden": "0",
          "read_only": "0",
          "roles_allowed": [
            "administrator"
          ],
          "text_repeatable": 0,
          "text_placeholder": ""
        },
        "start_date": {
          "id": 9813,
          "name": "start_date",
          "label": "Start Date",
          "description": "",
          "help": "",
          "class": "",
          "type": "number",
          "weight": 4,
          "pick_object": "",
          "pick_val": "",
          "sister_id": "",
          "_prlipro-post-options": {
            "send_auto_tweet": false,
            "requested_slug": "",
            "requested_twitter_message": "{%title%} {%url%} {%hash%}",
            "hide_twitter_button": 0,
            "hide_social_buttons": 0,
            "disable_replacements": 0
          },
          "required": "0",
          "unique": "0",
          "number_format_type": "number",
          "number_format": "i18n",
          "number_decimals": "0",
          "number_format_soft": "0",
          "number_step": "1",
          "number_min": "0",
          "number_max": "100",
          "number_max_length": "12",
          "pick_post_status": [
            "publish"
          ],
          "admin_only": "0",
          "restrict_role": "0",
          "restrict_capability": "0",
          "hidden": "0",
          "read_only": "0",
          "roles_allowed": [
            "administrator"
          ],
          "number_repeatable": "0",
          "number_placeholder": ""
        },
        "end_date": {
          "id": 9814,
          "name": "end_date",
          "label": "End Date",
          "description": "",
          "help": "",
          "class": "",
          "type": "number",
          "weight": 5,
          "pick_object": "",
          "pick_val": "",
          "sister_id": "",
          "_prlipro-post-options": {
            "send_auto_tweet": false,
            "requested_slug": "",
            "requested_twitter_message": "{%title%} {%url%} {%hash%}",
            "hide_twitter_button": 0,
            "hide_social_buttons": 0,
            "disable_replacements": 0
          },
          "required": "0",
          "unique": "0",
          "number_format_type": "number",
          "number_format": "i18n",
          "number_decimals": "0",
          "number_format_soft": "0",
          "number_step": "1",
          "number_min": "0",
          "number_max": "100",
          "number_max_length": "12",
          "pick_post_status": [
            "publish"
          ],
          "admin_only": "0",
          "restrict_role": "0",
          "restrict_capability": "0",
          "hidden": "0",
          "read_only": "0",
          "roles_allowed": [
            "administrator"
          ],
          "number_repeatable": "0",
          "number_placeholder": ""
        },
        "current": {
          "id": 11104,
          "name": "current",
          "label": "Current",
          "description": "",
          "help": "",
          "class": "",
          "type": "boolean",
          "weight": 6,
          "pick_object": "",
          "pick_val": "",
          "sister_id": "",
          "_prlipro-post-options": {
            "send_auto_tweet": false,
            "requested_slug": "",
            "requested_twitter_message": "{%title%} {%url%} {%hash%}",
            "hide_twitter_button": 0,
            "hide_social_buttons": 0,
            "disable_replacements": 0
          },
          "required": "0",
          "unique": "0",
          "pick_post_status": [
            "publish"
          ],
          "boolean_format_type": "checkbox",
          "boolean_yes_label": "Yes",
          "boolean_no_label": "No",
          "default_value": "0",
          "admin_only": "0",
          "restrict_role": "0",
          "restrict_capability": "0",
          "hidden": "0",
          "read_only": "0",
          "roles_allowed": [
            "administrator"
          ]
        }
      },
      "show_in_menu": "1",
      "_prlipro-post-options": {
        "send_auto_tweet": false,
        "requested_slug": "",
        "requested_twitter_message": "{%title%} {%url%} {%hash%}",
        "hide_twitter_button": 0,
        "hide_social_buttons": 0,
        "disable_replacements": 0
      },
      "label_singular": "Guru Sports Data League Season",
      "pod_index": "id",
      "hierarchical": "0",
      "ui_style": "post_type",
      "ui_actions_enabled": [
        "add",
        "edit",
        "duplicate",
        "delete"
      ],
      "ui_reorder_field": "menu_order",
      "ui_fields_manage": {
        "0": "name",
        "2": "modified"
      }
    }
  }
}
